== z-editor
- html, body
    - .containter-fluid .site
        - .row
            - .col .toolbar
            - .col .editors
                - .row
                    - .col .editor-tabs
                    - .col .editor-documents
            - .col .output


== sticky
- html, body
    - .containter-fluid
        - .row
            - .col .middle
                - .row .middle-content
            - .col .up
            - .col .down




== new z-editor layout
- html, body
    - .containter-fluid
        - .row
            - .col .middle --> editors
                - .row .middle-content
            - .col .up --> toolbar
            - .col .down --> output
